{
	"apiSandBox": {
		"domain": "api.sagepayments.com",		
		"basepath": "/bankcard/v1",
		"clientId":"QAYEWMGah32YPYtNATKSEAfybEoNVRJL", 	
		"clientSecret": "246Ly5PzOfIoE3uo",
		"merchantId": "173859436515",
		"merchantKey": "P1J2V8P2Q3D8"
		
	}
}
